{
  "setupFiles": ["<rootDir>/src/setupTests.js"],
  "testRegex": "/*.test.js$",
  "coverageReporters": ["lcov"],
  "coverageDirectory": "test-coverage",
  "coverageThreshold": {
   "global": {
     "branches": 100,
     "functions": 32,
     "lines": 100,
     "statements": 53
    }
  },
  "moduleDirectories": ["node_modules", "src"]
}